<?xml version="1.0" encoding="UTF-8" standalone="no"?>
<svg width="24px" height="24px" viewBox="0 0 24 24" version="1.1" xmlns="http://www.w3.org/2000/svg" xmlns:xlink="http://www.w3.org/1999/xlink" xmlns:sketch="http://www.bohemiancoding.com/sketch/ns">
    <!-- Generator: sketchtool 3.4.4 (395) - http://www.bohemiancoding.com/sketch -->
    <title>ic_facebook</title>
    <desc>Created with sketchtool.</desc>
    <defs></defs>
    <g id="All-Page" stroke="none" stroke-width="1" fill="none" fill-rule="evenodd" sketch:type="MSPage">
        <g id="012.1.Blog_detail" sketch:type="MSArtboardGroup" transform="translate(-238.000000, -3021.000000)">
            <g id="Footer" sketch:type="MSLayerGroup" transform="translate(0.000000, 2996.000000)">
                <g id="bg-+-menu-+-social" sketch:type="MSShapeGroup">
                    <g id="social" transform="translate(136.000000, 25.000000)">
                        <g id="Facebook" transform="translate(102.000000, 0.000000)">
                            <rect id="Grid" x="0" y="0" width="24" height="24"></rect>
                            <g id="-g-shape" transform="translate(2.000000, 2.000000)" stroke="#FFFFFF" stroke-linecap="round" stroke-linejoin="round">
                                <path d="M19.5833333,10 C19.5833333,15.2925 15.2933333,19.5833333 10,19.5833333 C4.70666667,19.5833333 0.416666667,15.2925 0.416666667,10 C0.416666667,4.70666667 4.70666667,0.416666667 10,0.416666667 C15.2933333,0.416666667 19.5833333,4.70666667 19.5833333,10 L19.5833333,10 Z M13.1990833,7.91666667 L11.2499167,7.91666667 L11.2499167,7.06416667 C11.2499167,6.62833333 11.5399167,6.525 11.74325,6.525 L12.9165833,6.525 L12.9165833,4.60333333 L10.95825,4.59833333 C9.04325,4.59833333 8.74991667,6.03083333 8.74991667,6.94666667 L8.74991667,7.91666667 L7.08325,7.91666667 L7.08325,9.58333333 L8.74991667,9.58333333 L8.74991667,15.4166667 L11.2499167,15.4166667 L11.2499167,9.58333333 L12.99575,9.58333333 L13.1990833,7.91666667 L13.1990833,7.91666667 Z" id="Stroke-551"></path>
                            </g>
                        </g>
                    </g>
                </g>
            </g>
        </g>
    </g>
</svg>