<?xml version="1.0" encoding="UTF-8" standalone="no"?>
<svg width="41px" height="41px" viewBox="0 0 41 41" version="1.1" xmlns="http://www.w3.org/2000/svg" xmlns:xlink="http://www.w3.org/1999/xlink" xmlns:sketch="http://www.bohemiancoding.com/sketch/ns">
    <!-- Generator: sketchtool 3.4.4 (395) - http://www.bohemiancoding.com/sketch -->
    <title>ic_support</title>
    <desc>Created with sketchtool.</desc>
    <defs></defs>
    <g id="All-Page" stroke="none" stroke-width="1" fill="none" fill-rule="evenodd" sketch:type="MSPage">
        <g id="01.Home" sketch:type="MSArtboardGroup" transform="translate(-1030.000000, -4541.000000)">
            <g id="Main-content" sketch:type="MSLayerGroup" transform="translate(0.000000, 846.000000)">
                <g id="Row-8" transform="translate(240.000000, 3590.000000)" sketch:type="MSShapeGroup">
                    <g id="Product" transform="translate(0.000000, 85.000000)">
                        <g id="product-3" transform="translate(660.000000, 0.000000)">
                            <g id="Support" transform="translate(110.000000, 0.000000)">
                                <g id="support_icon" transform="translate(20.000000, 20.000000)">
                                    <rect id="Grid" x="0" y="0" width="41" height="41"></rect>
                                    <g id="-g-shape" transform="translate(5.000000, 5.000000)" stroke="#FFFFFF" stroke-linejoin="round">
                                        <path d="M29.375,20.617625 C29.375,25.450125 25.45625,29.367625 20.625,29.367625 C15.79125,29.367625 11.875,25.450125 11.875,20.617625 C11.875,15.785125 15.79125,11.867625 20.625,11.867625 C25.45625,11.867625 29.375,15.785125 29.375,20.617625 L29.375,20.617625 Z M9.375,0.625 L9.375,5.625 M18.125,5.625 L0.625,5.625 L5.625,0.625 L13.125,0.625 L18.125,5.625 L18.125,5.625 Z M8.125,19.375 L0.625,19.375 L0.625,5.625 L18.125,5.625 L18.125,8.125 M18.031,18.034625 C18.031,16.603375 19.19225,15.440875 20.62475,15.440875 C22.05725,15.440875 23.21725,16.603375 23.21725,18.034625 C23.21725,19.467125 22.05725,20.627125 20.62475,20.627125 L20.62475,23.220875 M20.625,24.518375 C20.14625,24.518375 19.76125,24.905875 19.76125,25.382125 C19.76125,25.860875 20.14625,26.247125 20.625,26.247125 C21.1025,26.247125 21.48875,25.860875 21.48875,25.382125 C21.48875,24.905875 21.1025,24.518375 20.625,24.518375" id="Stroke-5511"></path>
                                    </g>
                                </g>
                            </g>
                        </g>
                    </g>
                </g>
            </g>
        </g>
    </g>
</svg>